\relax 
\providecommand\babel@aux[2]{}
\@nameuse{bbl@beforestart}
\catcode `"\active 
\providecommand\hyper@newdestlabel[2]{}
\providecommand\HyperFirstAtBeginDocument{\AtBeginDocument}
\HyperFirstAtBeginDocument{\ifx\hyper@anchor\@undefined
\global\let\oldnewlabel\newlabel
\gdef\newlabel#1#2{\newlabelxx{#1}#2}
\gdef\newlabelxx#1#2#3#4#5#6{\oldnewlabel{#1}{{#2}{#3}}}
\AtEndDocument{\ifx\hyper@anchor\@undefined
\let\newlabel\oldnewlabel
\fi}
\fi}
\global\let\hyper@last\relax 
\gdef\HyperFirstAtBeginDocument#1{#1}
\providecommand\HyField@AuxAddToFields[1]{}
\providecommand\HyField@AuxAddToCoFields[2]{}
\babel@aux{russian}{}
\newlabel{index::doc}{{}{1}{}{section*.2}{}}
\@writefile{toc}{\contentsline {chapter}{\numberline {1}Quick setup}{3}{chapter.1}\protected@file@percent }
\@writefile{lof}{\addvspace {10\p@ }}
\@writefile{lot}{\addvspace {10\p@ }}
\newlabel{index:quick-setup}{{1}{3}{Quick setup}{chapter.1}{}}
\@writefile{toc}{\contentsline {chapter}{\numberline {2}User documentation}{5}{chapter.2}\protected@file@percent }
\@writefile{lof}{\addvspace {10\p@ }}
\@writefile{lot}{\addvspace {10\p@ }}
\newlabel{index:user-documentation}{{2}{5}{User documentation}{chapter.2}{}}
\@writefile{toc}{\contentsline {section}{\numberline {2.1}A Quickstart Tutorial for MLDev}{5}{section.2.1}\protected@file@percent }
\newlabel{wikis/mldev-tutorial-basic:a-quickstart-tutorial-for-mldev}{{2.1}{5}{A Quickstart Tutorial for MLDev}{section.2.1}{}}
\newlabel{wikis/mldev-tutorial-basic::doc}{{2.1}{5}{A Quickstart Tutorial for MLDev}{section.2.1}{}}
\newlabel{wikis/mldev-tutorial-basic::doc}{{2.1}{5}{A Quickstart Tutorial for MLDev}{section.2.1}{}}
\@writefile{toc}{\contentsline {subsection}{\numberline {2.1.1}Contents}{5}{subsection.2.1.1}\protected@file@percent }
\newlabel{wikis/mldev-tutorial-basic:contents}{{2.1.1}{5}{Contents}{subsection.2.1.1}{}}
\@writefile{toc}{\contentsline {subsection}{\numberline {2.1.2}Installation instructions}{6}{subsection.2.1.2}\protected@file@percent }
\newlabel{wikis/mldev-tutorial-basic:installation-instructions}{{2.1.2}{6}{Installation instructions}{subsection.2.1.2}{}}
\@writefile{toc}{\contentsline {subsection}{\numberline {2.1.3}Hello World!}{6}{subsection.2.1.3}\protected@file@percent }
\newlabel{wikis/mldev-tutorial-basic:hello-world}{{2.1.3}{6}{Hello World!}{subsection.2.1.3}{}}
\@writefile{toc}{\contentsline {subsubsection}{Step 1. Create a pipeline}{6}{subsubsection*.3}\protected@file@percent }
\newlabel{wikis/mldev-tutorial-basic:step-1-create-a-pipeline}{{2.1.3}{6}{Step 1. Create a pipeline}{subsubsection*.3}{}}
\@writefile{toc}{\contentsline {subsubsection}{Step 2. Add a script to the stage hello\_world}{6}{subsubsection*.4}\protected@file@percent }
\newlabel{wikis/mldev-tutorial-basic:step-2-add-a-script-to-the-stage-hello-world}{{2.1.3}{6}{Step 2. Add a script to the stage hello\_world}{subsubsection*.4}{}}
\@writefile{toc}{\contentsline {subsubsection}{Step 3. Setup and run the experiment}{7}{subsubsection*.5}\protected@file@percent }
\newlabel{wikis/mldev-tutorial-basic:step-3-setup-and-run-the-experiment}{{2.1.3}{7}{Step 3. Setup and run the experiment}{subsubsection*.5}{}}
\@writefile{toc}{\contentsline {subsubsection}{Hello World completed!}{7}{subsubsection*.6}\protected@file@percent }
\newlabel{wikis/mldev-tutorial-basic:hello-world-completed}{{2.1.3}{7}{Hello World completed!}{subsubsection*.6}{}}
\@writefile{toc}{\contentsline {subsection}{\numberline {2.1.4}Simple classification task on template\sphinxhyphen {}default}{8}{subsection.2.1.4}\protected@file@percent }
\newlabel{wikis/mldev-tutorial-basic:simple-classification-task-on-template-default}{{2.1.4}{8}{Simple classification task on template\sphinxhyphen {}default}{subsection.2.1.4}{}}
\@writefile{toc}{\contentsline {subsubsection}{Step 1. Get the template}{8}{subsubsection*.7}\protected@file@percent }
\newlabel{wikis/mldev-tutorial-basic:step-1-get-the-template}{{2.1.4}{8}{Step 1. Get the template}{subsubsection*.7}{}}
\@writefile{toc}{\contentsline {subsubsection}{Step 2. Prepare the data}{8}{subsubsection*.8}\protected@file@percent }
\newlabel{wikis/mldev-tutorial-basic:step-2-prepare-the-data}{{2.1.4}{8}{Step 2. Prepare the data}{subsubsection*.8}{}}
\@writefile{toc}{\contentsline {subsubsection}{Step 3. Two stage pipeline}{9}{subsubsection*.9}\protected@file@percent }
\newlabel{wikis/mldev-tutorial-basic:step-3-two-stage-pipeline}{{2.1.4}{9}{Step 3. Two stage pipeline}{subsubsection*.9}{}}
\@writefile{toc}{\contentsline {subsubsection}{Step 4. Variables and expressions}{10}{subsubsection*.10}\protected@file@percent }
\newlabel{wikis/mldev-tutorial-basic:step-4-variables-and-expressions}{{2.1.4}{10}{Step 4. Variables and expressions}{subsubsection*.10}{}}
\@writefile{toc}{\contentsline {subsubsection}{Task completed!}{12}{subsubsection*.11}\protected@file@percent }
\newlabel{wikis/mldev-tutorial-basic:task-completed}{{2.1.4}{12}{Task completed!}{subsubsection*.11}{}}
\@writefile{toc}{\contentsline {subsection}{\numberline {2.1.5}Using the Collaboration Tool}{12}{subsection.2.1.5}\protected@file@percent }
\newlabel{wikis/mldev-tutorial-basic:using-the-collaboration-tool}{{2.1.5}{12}{Using the Collaboration Tool}{subsection.2.1.5}{}}
\@writefile{toc}{\contentsline {subsection}{\numberline {2.1.6}How to get help}{12}{subsection.2.1.6}\protected@file@percent }
\newlabel{wikis/mldev-tutorial-basic:how-to-get-help}{{2.1.6}{12}{How to get help}{subsection.2.1.6}{}}
\@writefile{toc}{\contentsline {section}{\numberline {2.2}User Guide}{12}{section.2.2}\protected@file@percent }
\newlabel{mldev-user-guide:user-guide}{{2.2}{12}{User Guide}{section.2.2}{}}
\newlabel{mldev-user-guide::doc}{{2.2}{12}{User Guide}{section.2.2}{}}
\@writefile{toc}{\contentsline {subsection}{\numberline {2.2.1}Contents}{12}{subsection.2.2.1}\protected@file@percent }
\newlabel{wikis/mldev-user-guide:contents}{{2.2.1}{12}{Contents}{subsection.2.2.1}{}}
\newlabel{wikis/mldev-user-guide::doc}{{2.2.1}{12}{Contents}{subsection.2.2.1}{}}
\@writefile{toc}{\contentsline {subsection}{\numberline {2.2.2}Installation}{13}{subsection.2.2.2}\protected@file@percent }
\newlabel{wikis/mldev-user-guide:installation}{{2.2.2}{13}{Installation}{subsection.2.2.2}{}}
\@writefile{toc}{\contentsline {subsubsection}{Pre\sphinxhyphen {}requisites}{13}{subsubsection*.12}\protected@file@percent }
\newlabel{wikis/mldev-user-guide:pre-requisites}{{2.2.2}{13}{Pre\sphinxhyphen {}requisites}{subsubsection*.12}{}}
\@writefile{toc}{\contentsline {subsubsection}{Install system packages}{13}{subsubsection*.13}\protected@file@percent }
\newlabel{wikis/mldev-user-guide:install-system-packages}{{2.2.2}{13}{Install system packages}{subsubsection*.13}{}}
\@writefile{toc}{\contentsline {subsubsection}{Install mldev}{13}{subsubsection*.14}\protected@file@percent }
\newlabel{wikis/mldev-user-guide:install-mldev}{{2.2.2}{13}{Install mldev}{subsubsection*.14}{}}
\@writefile{toc}{\contentsline {subsubsection}{Alternative sources}{13}{subsubsection*.15}\protected@file@percent }
\newlabel{wikis/mldev-user-guide:alternative-sources}{{2.2.2}{13}{Alternative sources}{subsubsection*.15}{}}
\@writefile{toc}{\contentsline {subsubsection}{Configuration files}{14}{subsubsection*.16}\protected@file@percent }
\newlabel{wikis/mldev-user-guide:configuration-files}{{2.2.2}{14}{Configuration files}{subsubsection*.16}{}}
\@writefile{toc}{\contentsline {subsubsection}{Installing extras}{14}{subsubsection*.17}\protected@file@percent }
\newlabel{wikis/mldev-user-guide:installing-extras}{{2.2.2}{14}{Installing extras}{subsubsection*.17}{}}
\@writefile{toc}{\contentsline {subsection}{\numberline {2.2.3}Experiment setup}{14}{subsection.2.2.3}\protected@file@percent }
\newlabel{wikis/mldev-user-guide:experiment-setup}{{2.2.3}{14}{Experiment setup}{subsection.2.2.3}{}}
\@writefile{toc}{\contentsline {subsubsection}{Step 1. Create a separate project for the experiment}{15}{subsubsection*.18}\protected@file@percent }
\newlabel{wikis/mldev-user-guide:step-1-create-a-separate-project-for-the-experiment}{{2.2.3}{15}{Step 1. Create a separate project for the experiment}{subsubsection*.18}{}}
\@writefile{toc}{\contentsline {subsubsection}{Step 2. Configure your experiment}{16}{subsubsection*.19}\protected@file@percent }
\newlabel{wikis/mldev-user-guide:step-2-configure-your-experiment}{{2.2.3}{16}{Step 2. Configure your experiment}{subsubsection*.19}{}}
\@writefile{toc}{\contentsline {subsubsection}{Step 3 \sphinxhyphen {} Commit changes}{16}{subsubsection*.20}\protected@file@percent }
\newlabel{wikis/mldev-user-guide:step-3-commit-changes}{{2.2.3}{16}{Step 3 \sphinxhyphen {} Commit changes}{subsubsection*.20}{}}
\@writefile{toc}{\contentsline {subsection}{\numberline {2.2.4}Running the experiment (locally)}{16}{subsection.2.2.4}\protected@file@percent }
\newlabel{wikis/mldev-user-guide:running-the-experiment-locally}{{2.2.4}{16}{Running the experiment (locally)}{subsection.2.2.4}{}}
\@writefile{toc}{\contentsline {subsection}{\numberline {2.2.5}Running the experiment (Google Colab)}{16}{subsection.2.2.5}\protected@file@percent }
\newlabel{wikis/mldev-user-guide:running-the-experiment-google-colab}{{2.2.5}{16}{Running the experiment (Google Colab)}{subsection.2.2.5}{}}
\@writefile{toc}{\contentsline {subsection}{\numberline {2.2.6}Advanced usage}{16}{subsection.2.2.6}\protected@file@percent }
\newlabel{wikis/mldev-user-guide:advanced-usage}{{2.2.6}{16}{Advanced usage}{subsection.2.2.6}{}}
\@writefile{toc}{\contentsline {subsubsection}{Using expressions in the experiment configuration}{16}{subsubsection*.21}\protected@file@percent }
\newlabel{wikis/mldev-user-guide:using-expressions-in-the-experiment-configuration}{{2.2.6}{16}{Using expressions in the experiment configuration}{subsubsection*.21}{}}
\@writefile{toc}{\contentsline {subsubsection}{Using custom types}{17}{subsubsection*.22}\protected@file@percent }
\newlabel{wikis/mldev-user-guide:using-custom-types}{{2.2.6}{17}{Using custom types}{subsubsection*.22}{}}
\@writefile{toc}{\contentsline {subsubsection}{Jupyter integration}{18}{subsubsection*.23}\protected@file@percent }
\newlabel{wikis/mldev-user-guide:jupyter-integration}{{2.2.6}{18}{Jupyter integration}{subsubsection*.23}{}}
\@writefile{toc}{\contentsline {subsubsection}{Telegram notifications}{18}{subsubsection*.24}\protected@file@percent }
\newlabel{wikis/mldev-user-guide:telegram-notifications}{{2.2.6}{18}{Telegram notifications}{subsubsection*.24}{}}
\@writefile{toc}{\contentsline {subsubsection}{Using Tensorboard on Google Colab}{19}{subsubsection*.25}\protected@file@percent }
\newlabel{wikis/mldev-user-guide:using-tensorboard-on-google-colab}{{2.2.6}{19}{Using Tensorboard on Google Colab}{subsubsection*.25}{}}
\@writefile{toc}{\contentsline {subsubsection}{Model demo}{19}{subsubsection*.26}\protected@file@percent }
\newlabel{wikis/mldev-user-guide:model-demo}{{2.2.6}{19}{Model demo}{subsubsection*.26}{}}
\@writefile{toc}{\contentsline {subsubsection}{Running pipelines through Gitlab}{19}{subsubsection*.27}\protected@file@percent }
\newlabel{wikis/mldev-user-guide:running-pipelines-through-gitlab}{{2.2.6}{19}{Running pipelines through Gitlab}{subsubsection*.27}{}}
\@writefile{toc}{\contentsline {section}{\numberline {2.3}MLDev collaboration tools (beta)}{19}{section.2.3}\protected@file@percent }
\newlabel{mldev-collab-tool:mldev-collaboration-tools-beta}{{2.3}{19}{MLDev collaboration tools (beta)}{section.2.3}{}}
\newlabel{mldev-collab-tool::doc}{{2.3}{19}{MLDev collaboration tools (beta)}{section.2.3}{}}
\@writefile{toc}{\contentsline {subsection}{\numberline {2.3.1}Contents}{19}{subsection.2.3.1}\protected@file@percent }
\newlabel{wikis/mldev-collab-tool:contents}{{2.3.1}{19}{Contents}{subsection.2.3.1}{}}
\newlabel{wikis/mldev-collab-tool::doc}{{2.3.1}{19}{Contents}{subsection.2.3.1}{}}
\@writefile{toc}{\contentsline {subsection}{\numberline {2.3.2}Installation}{19}{subsection.2.3.2}\protected@file@percent }
\newlabel{wikis/mldev-collab-tool:installation}{{2.3.2}{19}{Installation}{subsection.2.3.2}{}}
\@writefile{toc}{\contentsline {subsubsection}{Prerequisites}{19}{subsubsection*.28}\protected@file@percent }
\newlabel{wikis/mldev-collab-tool:prerequisites}{{2.3.2}{19}{Prerequisites}{subsubsection*.28}{}}
\@writefile{toc}{\contentsline {subsubsection}{Install the MLDev extra}{20}{subsubsection*.29}\protected@file@percent }
\newlabel{wikis/mldev-collab-tool:install-the-mldev-extra}{{2.3.2}{20}{Install the MLDev extra}{subsubsection*.29}{}}
\@writefile{toc}{\contentsline {subsubsection}{Alternative sources}{20}{subsubsection*.30}\protected@file@percent }
\newlabel{wikis/mldev-collab-tool:alternative-sources}{{2.3.2}{20}{Alternative sources}{subsubsection*.30}{}}
\@writefile{toc}{\contentsline {paragraph}{The Python Package Index (PyPI)}{20}{paragraph*.31}\protected@file@percent }
\newlabel{wikis/mldev-collab-tool:the-python-package-index-pypi}{{2.3.2}{20}{The Python Package Index (PyPI)}{paragraph*.31}{}}
\@writefile{toc}{\contentsline {paragraph}{The GitLab Package Registry}{20}{paragraph*.32}\protected@file@percent }
\newlabel{wikis/mldev-collab-tool:the-gitlab-package-registry}{{2.3.2}{20}{The GitLab Package Registry}{paragraph*.32}{}}
\@writefile{toc}{\contentsline {subsection}{\numberline {2.3.3}Initialization}{20}{subsection.2.3.3}\protected@file@percent }
\newlabel{wikis/mldev-collab-tool:initialization}{{2.3.3}{20}{Initialization}{subsection.2.3.3}{}}
\@writefile{toc}{\contentsline {subsubsection}{Initializing the Tool for a New Experiment}{20}{subsubsection*.33}\protected@file@percent }
\newlabel{wikis/mldev-collab-tool:initializing-the-tool-for-a-new-experiment}{{2.3.3}{20}{Initializing the Tool for a New Experiment}{subsubsection*.33}{}}
\@writefile{toc}{\contentsline {subsubsection}{Initializing the Tool for an Existing Experiment}{21}{subsubsection*.34}\protected@file@percent }
\newlabel{wikis/mldev-collab-tool:initializing-the-tool-for-an-existing-experiment}{{2.3.3}{21}{Initializing the Tool for an Existing Experiment}{subsubsection*.34}{}}
\@writefile{toc}{\contentsline {subsection}{\numberline {2.3.4}Usage}{22}{subsection.2.3.4}\protected@file@percent }
\newlabel{wikis/mldev-collab-tool:usage}{{2.3.4}{22}{Usage}{subsection.2.3.4}{}}
\@writefile{toc}{\contentsline {subsection}{\numberline {2.3.5}Tutorial}{22}{subsection.2.3.5}\protected@file@percent }
\newlabel{wikis/mldev-collab-tool:tutorial}{{2.3.5}{22}{Tutorial}{subsection.2.3.5}{}}
\@writefile{toc}{\contentsline {subsubsection}{Step 1. Prepare the Remote Repository}{22}{subsubsection*.35}\protected@file@percent }
\newlabel{wikis/mldev-collab-tool:step-1-prepare-the-remote-repository}{{2.3.5}{22}{Step 1. Prepare the Remote Repository}{subsubsection*.35}{}}
\@writefile{toc}{\contentsline {subsubsection}{Step 2. Initialize the Experiment}{22}{subsubsection*.36}\protected@file@percent }
\newlabel{wikis/mldev-collab-tool:step-2-initialize-the-experiment}{{2.3.5}{22}{Step 2. Initialize the Experiment}{subsubsection*.36}{}}
\@writefile{toc}{\contentsline {subsubsection}{Step 3. Make Changes}{24}{subsubsection*.37}\protected@file@percent }
\newlabel{wikis/mldev-collab-tool:step-3-make-changes}{{2.3.5}{24}{Step 3. Make Changes}{subsubsection*.37}{}}
\@writefile{toc}{\contentsline {subsubsection}{Step 4. Simulate the Work of Another Researcher}{25}{subsubsection*.38}\protected@file@percent }
\newlabel{wikis/mldev-collab-tool:step-4-simulate-the-work-of-another-researcher}{{2.3.5}{25}{Step 4. Simulate the Work of Another Researcher}{subsubsection*.38}{}}
\@writefile{toc}{\contentsline {subsubsection}{Step 5. Merge Your Changes}{25}{subsubsection*.39}\protected@file@percent }
\newlabel{wikis/mldev-collab-tool:step-5-merge-your-changes}{{2.3.5}{25}{Step 5. Merge Your Changes}{subsubsection*.39}{}}
\@writefile{toc}{\contentsline {chapter}{\numberline {3}Developer docs}{29}{chapter.3}\protected@file@percent }
\@writefile{lof}{\addvspace {10\p@ }}
\@writefile{lot}{\addvspace {10\p@ }}
\newlabel{index:developer-docs}{{3}{29}{Developer docs}{chapter.3}{}}
\@writefile{toc}{\contentsline {section}{\numberline {3.1}Contribution Guidelines}{29}{section.3.1}\protected@file@percent }
\newlabel{mldev-contributing:contribution-guidelines}{{3.1}{29}{Contribution Guidelines}{section.3.1}{}}
\newlabel{mldev-contributing::doc}{{3.1}{29}{Contribution Guidelines}{section.3.1}{}}
\@writefile{toc}{\contentsline {subsection}{\numberline {3.1.1}General Guidelines}{29}{subsection.3.1.1}\protected@file@percent }
\newlabel{mldev-contributing:general-guidelines}{{3.1.1}{29}{General Guidelines}{subsection.3.1.1}{}}
\@writefile{toc}{\contentsline {subsection}{\numberline {3.1.2}Pre\sphinxhyphen {}requisites}{29}{subsection.3.1.2}\protected@file@percent }
\newlabel{mldev-contributing:pre-requisites}{{3.1.2}{29}{Pre\sphinxhyphen {}requisites}{subsection.3.1.2}{}}
\@writefile{toc}{\contentsline {subsection}{\numberline {3.1.3}Translating and contributing docs and tutorials}{30}{subsection.3.1.3}\protected@file@percent }
\newlabel{mldev-contributing:translating-and-contributing-docs-and-tutorials}{{3.1.3}{30}{Translating and contributing docs and tutorials}{subsection.3.1.3}{}}
\@writefile{toc}{\contentsline {subsection}{\numberline {3.1.4}Reporting bugs and code fixes}{30}{subsection.3.1.4}\protected@file@percent }
\newlabel{mldev-contributing:reporting-bugs-and-code-fixes}{{3.1.4}{30}{Reporting bugs and code fixes}{subsection.3.1.4}{}}
\@writefile{toc}{\contentsline {subsection}{\numberline {3.1.5}Joining the project}{30}{subsection.3.1.5}\protected@file@percent }
\newlabel{mldev-contributing:joining-the-project}{{3.1.5}{30}{Joining the project}{subsection.3.1.5}{}}
\@writefile{toc}{\contentsline {section}{\numberline {3.2}Developer documentation}{30}{section.3.2}\protected@file@percent }
\newlabel{mldev.develop:developer-documentation}{{3.2}{30}{Developer documentation}{section.3.2}{}}
\newlabel{mldev.develop::doc}{{3.2}{30}{Developer documentation}{section.3.2}{}}
\@writefile{toc}{\contentsline {subsection}{\numberline {3.2.1}MLDev Base}{30}{subsection.3.2.1}\protected@file@percent }
\newlabel{mldev.develop:mldev-base}{{3.2.1}{30}{MLDev Base}{subsection.3.2.1}{}}
\@writefile{toc}{\contentsline {subsection}{\numberline {3.2.2}MLDev Config Parser}{30}{subsection.3.2.2}\protected@file@percent }
\newlabel{mldev.develop:mldev-config-parser}{{3.2.2}{30}{MLDev Config Parser}{subsection.3.2.2}{}}
\@writefile{toc}{\contentsline {subsection}{\numberline {3.2.3}MLDev Jupyter integration}{30}{subsection.3.2.3}\protected@file@percent }
\newlabel{mldev.develop:mldev-jupyter-integration}{{3.2.3}{30}{MLDev Jupyter integration}{subsection.3.2.3}{}}
\@writefile{toc}{\contentsline {subsection}{\numberline {3.2.4}MLDev DVC integration}{30}{subsection.3.2.4}\protected@file@percent }
\newlabel{mldev.develop:mldev-dvc-integration}{{3.2.4}{30}{MLDev DVC integration}{subsection.3.2.4}{}}
\@writefile{toc}{\contentsline {subsection}{\numberline {3.2.5}MLDev Collab}{30}{subsection.3.2.5}\protected@file@percent }
\newlabel{mldev.develop:mldev-collab}{{3.2.5}{30}{MLDev Collab}{subsection.3.2.5}{}}
\@writefile{toc}{\contentsline {subsubsection}{Collaboration module}{30}{subsubsection*.40}\protected@file@percent }
\newlabel{codedoc/mldev_collab.collab:collaboration-module}{{3.2.5}{30}{Collaboration module}{subsubsection*.40}{}}
\newlabel{codedoc/mldev_collab.collab:module-mldev_collab.collab}{{3.2.5}{30}{Collaboration module}{subsubsection*.40}{}}
\newlabel{codedoc/mldev_collab.collab::doc}{{3.2.5}{30}{Collaboration module}{subsubsection*.40}{}}
\newlabel{codedoc/mldev_collab.collab:mldev_collab.collab.is_tracked}{{3.2.5}{30}{Collaboration module}{section*.41}{}}
\newlabel{codedoc/mldev_collab.collab:mldev_collab.collab.merge_driver}{{3.2.5}{31}{Collaboration module}{section*.42}{}}
\newlabel{codedoc/mldev_collab.collab:mldev_collab.collab.precommit}{{3.2.5}{31}{Collaboration module}{section*.43}{}}
\newlabel{codedoc/mldev_collab.collab:mldev_collab.collab.track_file}{{3.2.5}{32}{Collaboration module}{section*.44}{}}
\@writefile{toc}{\contentsline {subsubsection}{Operations module}{32}{subsubsection*.45}\protected@file@percent }
\newlabel{codedoc/mldev_collab.collab:operations-module}{{3.2.5}{32}{Operations module}{subsubsection*.45}{}}
\newlabel{codedoc/mldev_collab.collab:module-mldev_collab.operations}{{3.2.5}{32}{Operations module}{subsubsection*.45}{}}
\newlabel{codedoc/mldev_collab.collab:mldev_collab.operations.CollabOperations}{{3.2.5}{32}{Operations module}{section*.46}{}}
\newlabel{codedoc/mldev_collab.collab:mldev_collab.operations.CollabOperations.apply_operations}{{3.2.5}{32}{Operations module}{section*.47}{}}
\newlabel{codedoc/mldev_collab.collab:mldev_collab.operations.CollabOperations.get_operations_delta}{{3.2.5}{32}{Operations module}{section*.48}{}}
\newlabel{codedoc/mldev_collab.collab:mldev_collab.operations.YamlPatchCollabOperations}{{3.2.5}{32}{Operations module}{section*.49}{}}
\newlabel{codedoc/mldev_collab.collab:mldev_collab.operations.YamlPatchCollabOperations.apply_operations}{{3.2.5}{33}{}{section*.50}{}}
\newlabel{codedoc/mldev_collab.collab:mldev_collab.operations.YamlPatchCollabOperations.get_operations_delta}{{3.2.5}{33}{}{section*.51}{}}
\@writefile{toc}{\contentsline {chapter}{\numberline {4}Project sponsors and supporters}{35}{chapter.4}\protected@file@percent }
\@writefile{lof}{\addvspace {10\p@ }}
\@writefile{lot}{\addvspace {10\p@ }}
\newlabel{index:project-sponsors-and-supporters}{{4}{35}{Project sponsors and supporters}{chapter.4}{}}
\@writefile{toc}{\contentsline {chapter}{\numberline {5}Contacts}{37}{chapter.5}\protected@file@percent }
\@writefile{lof}{\addvspace {10\p@ }}
\@writefile{lot}{\addvspace {10\p@ }}
\newlabel{index:contacts}{{5}{37}{Contacts}{chapter.5}{}}
\@writefile{toc}{\contentsline {chapter}{\numberline {6}License}{39}{chapter.6}\protected@file@percent }
\@writefile{lof}{\addvspace {10\p@ }}
\@writefile{lot}{\addvspace {10\p@ }}
\newlabel{index:license}{{6}{39}{License}{chapter.6}{}}
\@writefile{toc}{\contentsline {chapter}{\numberline {7}Index and tables}{41}{chapter.7}\protected@file@percent }
\@writefile{lof}{\addvspace {10\p@ }}
\@writefile{lot}{\addvspace {10\p@ }}
\newlabel{index:index-and-tables}{{7}{41}{Index and tables}{chapter.7}{}}
\@writefile{toc}{\contentsline {chapter}{Содержание модулей Python}{43}{section*.52}\protected@file@percent }
\@writefile{toc}{\contentsline {chapter}{Алфавитный указатель}{45}{section*.53}\protected@file@percent }
\gdef \@abspage@last{49}
